// Jest Snapshot v1, https://goo.gl/fbAQLP

exports[`NgBench - Basic usage test component can be dumped to console using host.debug() 1`] = `
Array [
  "[36m<sma-selector>[39m
  [36m<p>[39m
    [0mdefault-title[0m
  [36m</p>[39m
  [36m<button>[39m
    [0mclick me[0m
  [36m</button>[39m
[36m</sma-selector>[39m",
]
`;
