{
  "extends": "../../tslint.json",
  "rules": {
    "directive-selector": [false, "attribute", "lib", "camelCase"],
    "component-selector": [false, "element", "lib", "kebab-case"],
    "no-input-rename": false,
    "variable-name": [true, "check-format", "allow-leading-underscore"]
  }
}
